{
  "project_info": {
    "project_number": "486149362479",
    "firebase_url": "https://cadastrousuario-ee113.firebaseio.com",
    "project_id": "cadastrousuario-ee113",
    "storage_bucket": "cadastrousuario-ee113.appspot.com"
  },
  "client": [
    {
      "client_info": {
        "mobilesdk_app_id": "1:486149362479:android:18126245635c0f28",
        "android_client_info": {
          "package_name": "com.company.gabriel.preprojeto"
        }
      },
      "oauth_client": [
        {
          "client_id": "486149362479-bpj3m4jc3moo7ivkv7d8ousvbstsiquq.apps.googleusercontent.com",
          "client_type": 3
        }
      ],
      "api_key": [
        {
          "current_key": "AIzaSyAZzlBXvsOmMy1wyr75_wp6NMV_MTLM0XE"
        }
      ],
      "services": {
        "analytics_service": {
          "status": 1
        },
        "appinvite_service": {
          "status": 1,
          "other_platform_oauth_client": []
        },
        "ads_service": {
          "status": 2
        }
      }
    }
  ],
  "configuration_version": "1"
}